{
  "response": {
    "status": "ok",
    "userTier": "developer",
    "total": 44026,
    "startIndex": 1,
    "pageSize": 10,
    "currentPage": 1,
    "pages": 4403,
    "results": [
      {
        "id": "aberdeen-grampian/aberdeen-grampian",
        "webTitle": "Aberdeen-Grampian",
        "type": "keyword",
        "sectionId": "aberdeen-grampian",
        "sectionName": "Aberdeen-Grampian",
        "webUrl": "http://www.theguardian.com/aberdeen-grampian/aberdeen-grampian",
        "apiUrl": "http://content.guardianapis.com/aberdeen-grampian/aberdeen-grampian"
      },
      {
        "id": "abu-dhabi/abu-dhabi",
        "webTitle": "Abu Dhabi",
        "type": "keyword",
        "sectionId": "abu-dhabi",
        "sectionName": "Abu Dhabi",
        "webUrl": "http://www.theguardian.com/abu-dhabi/abu-dhabi",
        "apiUrl": "http://content.guardianapis.com/abu-dhabi/abu-dhabi"
      },
      {
        "id": "accenture-partner-zone/accenture-partner-zone",
        "webTitle": "Accenture partner zone",
        "type": "keyword",
        "sectionId": "accenture-partner-zone",
        "sectionName": "Accenture partner zone",
        "webUrl": "http://www.theguardian.com/accenture-partner-zone/accenture-partner-zone",
        "apiUrl": "http://content.guardianapis.com/accenture-partner-zone/accenture-partner-zone"
      },
      {
        "id": "accenture/accenture",
        "webTitle": "Accenture",
        "type": "keyword",
        "sectionId": "accenture",
        "sectionName": "Accenture",
        "webUrl": "http://www.theguardian.com/accenture/accenture",
        "apiUrl": "http://content.guardianapis.com/accenture/accenture"
      },
      {
        "id": "achievementsaward/achievementsaward",
        "webTitle": "International Development Achievement award",
        "type": "keyword",
        "sectionId": "achievementsaward",
        "sectionName": "International Development Achievement Award",
        "webUrl": "http://www.theguardian.com/achievementsaward/achievementsaward",
        "apiUrl": "http://content.guardianapis.com/achievementsaward/achievementsaward"
      },
      {
        "id": "achievementsaward/international-development-achievement-award-2010",
        "webTitle": "International Development Achievement award 2010",
        "type": "keyword",
        "sectionId": "achievementsaward",
        "sectionName": "International Development Achievement Award",
        "webUrl": "http://www.theguardian.com/achievementsaward/international-development-achievement-award-2010",
        "apiUrl": "http://content.guardianapis.com/achievementsaward/international-development-achievement-award-2010"
      },
      {
        "id": "achievementsaward/international-development-achievement-award-2011",
        "webTitle": "International development achievement award 2011",
        "type": "keyword",
        "sectionId": "achievementsaward",
        "sectionName": "International Development Achievement Award",
        "webUrl": "http://www.theguardian.com/achievementsaward/international-development-achievement-award-2011",
        "apiUrl": "http://content.guardianapis.com/achievementsaward/international-development-achievement-award-2011"
      },
      {
        "id": "achievementsaward/judges",
        "webTitle": "Judges",
        "type": "keyword",
        "sectionId": "achievementsaward",
        "sectionName": "International Development Achievement Award",
        "webUrl": "http://www.theguardian.com/achievementsaward/judges",
        "apiUrl": "http://content.guardianapis.com/achievementsaward/judges"
      },
      {
        "id": "action-for-children/action-for-children",
        "webTitle": "Action for Children",
        "type": "keyword",
        "sectionId": "action-for-children",
        "sectionName": "Action for Children",
        "webUrl": "http://www.theguardian.com/action-for-children/action-for-children",
        "apiUrl": "http://content.guardianapis.com/action-for-children/action-for-children"
      },
      {
        "id": "actionaid-feeling/actionaid-feeling",
        "webTitle": "ActionAid - What a feeling",
        "type": "keyword",
        "sectionId": "actionaid-feeling",
        "sectionName": "ActionAid - What a feeling",
        "webUrl": "http://www.theguardian.com/actionaid-feeling/actionaid-feeling",
        "apiUrl": "http://content.guardianapis.com/actionaid-feeling/actionaid-feeling"
      }
    ]
  }
}